Intro a la programación en R
…
- El primer argumento es el data frame y luego la(s) variable(s) separadas por coma.
--

- `select`(<span style=" font-weight: bold;    border-radius: 4px; padding-right: 4px; padding-left: 4px; background-color: #b3e2cd !important;" >&lt;dataframe&gt;</span>, <span style=" font-weight: bold;    border-radius: 4px; padding-right: 4px; padding-left: 4px; background-color: #b3e2cd !important;" >&lt;variable&gt;</span>) 
<br>
--

.pull-left[

```r
*select(pop, country)
```

```
# A tibble: 1,704 x 1
   country    
   <chr>      
 1 Afghanistan
 2 Afghanistan
 3 Afghanistan
 4 Afghanistan
 5 Afghanistan
 6 Afghanistan
 7 Afghanistan
 8 Afghanistan
 9 Afghanistan
10 Afghanistan
# … with 1,694 more rows
```
]
.pull-rigth[

```r
*select(pop, country, year)
```

```
# A tibble: 1,704 x 2
   country      year
   <chr>       <dbl>
 1 Afghanistan  1952
 2 Afghanistan  1957
 3 Afghanistan  1962
 4 Afghanistan  1967
 5 Afghanistan  1972
 6 Afghanistan  1977
 7 Afghanistan  1982
 8 Afghanistan  1987
 9 Afghanistan  1992
10 Afghanistan  1997
# … with 1,694 more rows
```
…
Las funciones de tidyverse permiten llamar a las variables de un data frame sin usar comillas pero esto no es aplicable al resto de los paquetes de R, incluido los del base.

---
# Seleccionar columnas/variables 

.pull-left[
Seleccionar un rango de columnas: select(<span style=" font-weight: bold;    border-radius: 4px; padding-right: 4px; padding-left: 4px; background-color: #b3e2cd !important;" >&lt;df&gt;</span>, <span style=" font-weight: bold;    border-radius: 4px; padding-right: 4px; padding-left: 4px; background-color: #b3e2cd !important;" >&lt;desde&gt;:&lt;hasta&gt;</span>)

```r
select(pop, year:gdpPercap)
```

```
# A tibble: 1,704 x 4
    year lifeExp      pop gdpPercap
   <dbl>   <dbl>    <dbl>     <dbl>
 1  1952    28.8  8425333      779.
 2  1957    30.3  9240934      821.
 3  1962    32.0 10267083      853.
 4  1967    34.0 11537966      836.
 5  1972    36.1 13079460      740.
 6  1977    38.4 14880372      786.
 7  1982    39.9 12881816      978.
 8  1987    40.8 13867957      852.
 9  1992    41.7 16317921      649.
10  1997    41.8 22227415      635.
# … with 1,694 more rows
```

]
.pull-right[
Seleccionar todas las columnas menos una: select(<span style=" font-weight: bold;    border-radius: 4px; padding-right: 4px; padding-left: 4px; background-color: #b3e2cd !important;" >&lt;df&gt;</span>, <span style=" font-weight: bold;    border-radius: 4px; padding-right: 4px; padding-left: 4px; background-color: #b3e2cd !important;" >-&lt;variable&gt;</span>)

```r
select(pop, -gdpPercap)
```

```
# A tibble: 1,704 x 5
   country     continent  year lifeExp      pop
   <chr>       <chr>     <dbl>   <dbl>    <dbl>
 1 Afghanistan Asia       1952    28.8  8425333
 2 Afghanistan Asia       1957    30.3  9240934
 3 Afghanistan Asia       1962    32.0 10267083
 4 Afghanistan Asia       1967    34.0 11537966
 5 Afghanistan Asia       1972    36.1 13079460
 6 Afghanistan Asia       1977    38.4 14880372
 7 Afghanistan Asia       1982    39.9 12881816
 8 Afghanistan Asia       1987    40.8 13867957
 9 Afghanistan Asia       1992    41.7 16317921
10 Afghanistan Asia       1997    41.8 22227415
# … with 1,694 more rows
```
…
- La función <span style=" font-weight: bold;    border-radius: 4px; padding-right: 4px; padding-left: 4px; background-color: #b3e2cd !important;" >filter()</span> selecciona observaciones/filas según una condición.
--

- Puede ser una condición que involucre a una o varias variables. Condiciono a que tome o no tome ciertos valores.
--

- `filter`(<span style=" font-weight: bold;    border-radius: 4px; padding-right: 4px; padding-left: 4px; background-color: #b3e2cd !important;" >&lt;df&gt;</span>, <span style=" font-weight: bold;    border-radius: 4px; padding-right: 4px; padding-left: 4px; background-color: #b3e2cd !important;" >&lt;condicion&gt;</span>)

```r
*menor35 <- filter(pop, lifeExp < 35) # me quedo con los casos cuyo precio es menor a 35
menor35
```

```
# A tibble: 33 x 5
   country      continent  year lifeExp      pop
   <chr>        <chr>     <dbl>   <dbl>    <dbl>
 1 Afghanistan  Asia       1952    28.8  8425333
 2 Afghanistan  Asia       1957    30.3  9240934
 3 Afghanistan  Asia       1962    32.0 10267083
 4 Afghanistan  Asia       1967    34.0 11537966
 5 Angola       Africa     1952    30.0  4232095
 6 Angola       Africa     1957    32.0  4561361
 7 Angola       Africa     1962    34    4826015
 8 Burkina Faso Africa     1952    32.0  4469979
 9 Burkina Faso Africa     1957    34.9  4713416
10 Cambodia     Asia       1977    31.2  6978607
# … with 23 more rows
```
…
---
# Operadores de comparación 

.pull-left[
Mayor que: <span style=" font-weight: bold;    border-radius: 4px; padding-right: 4px; padding-left: 4px; background-color: #b3e2cd !important;" >&gt;</span>

```r
*filter(pop, lifeExp > 70)
```

```
# A tibble: 493 x 5
   country   continent  year lifeExp      pop
   <chr>     <chr>     <dbl>   <dbl>    <dbl>
 1 Albania   Europe     1982    70.4  2780097
 2 Albania   Europe     1987    72    3075321
 3 Albania   Europe     1992    71.6  3326498
 4 Albania   Europe     1997    73.0  3428038
 5 Albania   Europe     2002    75.7  3508512
 6 Albania   Europe     2007    76.4  3600523
 7 Algeria   Africa     2002    71.0 31287142
 8 Algeria   Africa     2007    72.3 33333216
 9 Argentina Americas   1987    70.8 31620918
10 Argentina Americas   1992    71.9 33958947
# … with 483 more rows
```

]
.pull-rigth[
<br>
Mayor igual que: <span style=" font-weight: bold;    border-radius: 4px; padding-right: 4px; padding-left: 4px; background-color: #b3e2cd !important;" >&gt;=</span>

```r
*filter(pop, lifeExp >= 70)
```

```
# A tibble: 494 x 5
   country   continent  year lifeExp      pop
   <chr>     <chr>     <dbl>   <dbl>    <dbl>
 1 Albania   Europe     1982    70.4  2780097
 2 Albania   Europe     1987    72    3075321
 3 Albania   Europe     1992    71.6  3326498
 4 Albania   Europe     1997    73.0  3428038
 5 Albania   Europe     2002    75.7  3508512
 6 Albania   Europe     2007    76.4  3600523
 7 Algeria   Africa     2002    71.0 31287142
 8 Algeria   Africa     2007    72.3 33333216
 9 Argentina Americas   1987    70.8 31620918
10 Argentina Americas   1992    71.9 33958947
# … with 484 more rows
```

]

---
# Operadores de comparación 

.pull-left[
Menor que: <span style=" font-weight: bold;    border-radius: 4px; padding-right: 4px; padding-left: 4px; background-color: #b3e2cd !important;" >&lt;</span>

```r
*filter(pop, lifeExp < 70)
```

```
# A tibble: 1,210 x 5
   country     continent  year lifeExp      pop
   <chr>       <chr>     <dbl>   <dbl>    <dbl>
 1 Afghanistan Asia       1952    28.8  8425333
 2 Afghanistan Asia       1957    30.3  9240934
 3 Afghanistan Asia       1962    32.0 10267083
 4 Afghanistan Asia       1967    34.0 11537966
 5 Afghanistan Asia       1972    36.1 13079460
 6 Afghanistan Asia       1977    38.4 14880372
 7 Afghanistan Asia       1982    39.9 12881816
 8 Afghanistan Asia       1987    40.8 13867957
 9 Afghanistan Asia       1992    41.7 16317921
10 Afghanistan Asia       1997    41.8 22227415
# … with 1,200 more rows
```

]
.pull-rigth[
<br>
Menor igual que: <span style=" font-weight: bold;    border-radius: 4px; padding-right: 4px; padding-left: 4px; background-color: #b3e2cd !important;" >&lt;=</span>

```r
*filter(pop, lifeExp <= 70)
```

```
# A tibble: 1,211 x 5
   country     continent  year lifeExp      pop
   <chr>       <chr>     <dbl>   <dbl>    <dbl>
 1 Afghanistan Asia       1952    28.8  8425333
 2 Afghanistan Asia       1957    30.3  9240934
 3 Afghanistan Asia       1962    32.0 10267083
 4 Afghanistan Asia       1967    34.0 11537966
 5 Afghanistan Asia       1972    36.1 13079460
 6 Afghanistan Asia       1977    38.4 14880372
 7 Afghanistan Asia       1982    39.9 12881816
 8 Afghanistan Asia       1987    40.8 13867957
 9 Afghanistan Asia       1992    41.7 16317921
10 Afghanistan Asia       1997    41.8 22227415
# … with 1,201 more rows
```
…
]
.pull-rigth[
<br>
Diferente que: <span style=" font-weight: bold;    border-radius: 4px; padding-right: 4px; padding-left: 4px; background-color: #b3e2cd !important;" >!=</span>

```r
*filter(pop, lifeExp != 70)
```

```
# A tibble: 1,703 x 5
   country     continent  year lifeExp      pop
   <chr>       <chr>     <dbl>   <dbl>    <dbl>
 1 Afghanistan Asia       1952    28.8  8425333
 2 Afghanistan Asia       1957    30.3  9240934
 3 Afghanistan Asia       1962    32.0 10267083
 4 Afghanistan Asia       1967    34.0 11537966
 5 Afghanistan Asia       1972    36.1 13079460
 6 Afghanistan Asia       1977    38.4 14880372
 7 Afghanistan Asia       1982    39.9 12881816
 8 Afghanistan Asia       1987    40.8 13867957
 9 Afghanistan Asia       1992    41.7 16317921
10 Afghanistan Asia       1997    41.8 22227415
# … with 1,693 more rows
```
…
---
# Operadores lógicos

O lógico:  <span style=" font-weight: bold;    border-radius: 4px; padding-right: 4px; padding-left: 4px; background-color: #b3e2cd !important;" >|</span>

```r
# selecciono casos cuya expectiva de vida es menor a 30 o mayor a 80
*filter(pop, lifeExp < 30 | lifeExp > 80)
```

```
# A tibble: 23 x 5
   country          continent  year lifeExp      pop
   <chr>            <chr>     <dbl>   <dbl>    <dbl>
 1 Afghanistan      Asia       1952    28.8  8425333
 2 Australia        Oceania    2002    80.4 19546792
 3 Australia        Oceania    2007    81.2 20434176
 4 Canada           Americas   2007    80.7 33390141
 5 France           Europe     2007    80.7 61083916
 6 Hong Kong, China Asia       2002    81.5  6762476
 7 Hong Kong, China Asia       2007    82.2  6980412
 8 Iceland          Europe     2002    80.5   288030
 9 Iceland          Europe     2007    81.8   301931
10 Israel           Asia       2007    80.7  6426679
# … with 13 more rows
```
…
---
# Operadores lógicos

No lógico: <span style=" font-weight: bold;    border-radius: 4px; padding-right: 4px; padding-left: 4px; background-color: #b3e2cd !important;" >!</span>

```r
# selecciono paises cuya expectativa de via no es 70 
*filter(pop, !lifeExp == 70)
```

```
# A tibble: 1,703 x 5
   country     continent  year lifeExp      pop
   <chr>       <chr>     <dbl>   <dbl>    <dbl>
 1 Afghanistan Asia       1952    28.8  8425333
 2 Afghanistan Asia       1957    30.3  9240934
 3 Afghanistan Asia       1962    32.0 10267083
 4 Afghanistan Asia       1967    34.0 11537966
 5 Afghanistan Asia       1972    36.1 13079460
 6 Afghanistan Asia       1977    38.4 14880372
 7 Afghanistan Asia       1982    39.9 12881816
 8 Afghanistan Asia       1987    40.8 13867957
 9 Afghanistan Asia       1992    41.7 16317921
10 Afghanistan Asia       1997    41.8 22227415
# … with 1,693 more rows
```
…
- <span style=" font-weight: bold;    border-radius: 4px; padding-right: 4px; padding-left: 4px; background-color: #b3e2cd !important;" >&lt;x&gt; %in% &lt;y&gt;</span>, el primer elemento de x se compara con todos los elementos de y, el segundo elemento de x se compara con todos los elementos de y, así sucesivamente. 
--

- Devuelve un TRUE o un FALSE en cada comparación. TRUE cuando el elemento de x está en y, FALSE en caso contrario.
--

- Cuando lo uso en `filter()` se queda con los TRUE. 

```r
# selecciono casos cuyo continente es América o Asia
filter(pop, continent %in% c("Americas", "Asia"))
```

```
# A tibble: 696 x 5
   country     continent  year lifeExp      pop
   <chr>       <chr>     <dbl>   <dbl>    <dbl>
 1 Afghanistan Asia       1952    28.8  8425333
 2 Afghanistan Asia       1957    30.3  9240934
 3 Afghanistan Asia       1962    32.0 10267083
 4 Afghanistan Asia       1967    34.0 11537966
 5 Afghanistan Asia       1972    36.1 13079460
 6 Afghanistan Asia       1977    38.4 14880372
 7 Afghanistan Asia       1982    39.9 12881816
 8 Afghanistan Asia       1987    40.8 13867957
 9 Afghanistan Asia       1992    41.7 16317921
10 Afghanistan Asia       1997    41.8 22227415
# … with 686 more rows
```

En este caso es lo mismo que:

```r
# selecciono casos de América o Asia
filter(pop, continent == "Americas" | continent == "Asia")
```

```
# A tibble: 696 x 5
   country     continent  year lifeExp      pop
   <chr>       <chr>     <dbl>   <dbl>    <dbl>
 1 Afghanistan Asia       1952    28.8  8425333
 2 Afghanistan Asia       1957    30.3  9240934
 3 Afghanistan Asia       1962    32.0 10267083
 4 Afghanistan Asia       1967    34.0 11537966
 5 Afghanistan Asia       1972    36.1 13079460
 6 Afghanistan Asia       1977    38.4 14880372
 7 Afghanistan Asia       1982    39.9 12881816
 8 Afghanistan Asia       1987    40.8 13867957
 9 Afghanistan Asia       1992    41.7 16317921
10 Afghanistan Asia       1997    41.8 22227415
# … with 686 more rows
```
…
--

.pull-right[

```r
*count(pop, continent, country)
```

```
# A tibble: 142 x 3
   continent country                      n
   <chr>     <chr>                    <int>
 1 Africa    Algeria                     12
 2 Africa    Angola                      12
 3 Africa    Benin                       12
 4 Africa    Botswana                    12
 5 Africa    Burkina Faso                12
 6 Africa    Burundi                     12
 7 Africa    Cameroon                    12
 8 Africa    Central African Republic    12
 9 Africa    Chad                        12
10 Africa    Comoros                     12
# … with 132 more rows
```
…
